Common microbiota analysis workflow using RIVM-Toolbox
…
There are 184 controls, 213 ILI samples from visit-1 and 192 ILI samples after recovery visit-2.

QC

Before starting detailed analysis, it is important to check and explore the data.

Here, we explore basic sample and ASVs features.

qc_Data <- calculateQC(ps)
qc_Data

## $SampleQC
## # A tibble: 589 x 4
##    Samples   sample_total_taxa sample_total_reads number_taxa_account_fifty_per~
##    <chr>                 <dbl>              <dbl>                          <int>
##  1 sample_1                259              15237                             11
##  2 sample_2                291              18970                             16
##  3 sample_3                336              21161                             16
##  4 sample_4                355              17754                             20
##  5 sample_5                300              25724                             11
##  6 sample_6                374              33815                             14
##  7 sample_7                251              13810                             15
##  8 sample_8                273              22730                             15
##  9 sample_9                279              22706                             15
## 10 sample_10               219              15521                              9
## # ... with 579 more rows
## 
## $TaxaQC
## # A tibble: 905 x 9
##    taxa    taxa_counts taxa_mean_counts taxa_stdev_counts taxa_cv taxa_rank
##    <chr>         <dbl>            <dbl>             <dbl>   <dbl>     <dbl>
##  1 ASV302        13913           23.6               47.3     2.00     648  
##  2 ASV636         4063            6.90              27.4     3.97     462  
##  3 ASV500         6223           10.6               45.0     4.26     535  
##  4 ASV7         784128         1331.              1652.      1.24     899  
##  5 ASV2617         311            0.528              1.50    2.84      45  
##  6 ASV148        40396           68.6              224.      3.26     765  
##  7 ASV196        24796           42.1              137.      3.26     724  
##  8 ASV2699         294            0.499              1.81    3.63      40.5
##  9 ASV109        60088          102.               303.      2.97     798  
## 10 ASV1472         907            1.54               3.62    2.35     229  
## # ... with 895 more rows, and 3 more variables: taxa_dectected_samples <dbl>,
## #   taxa_prevalence <dbl>, percent_of_total <dbl>
…
We notice that Eubacterium, Clostridium, and Ruminococcus can be detected in different families. These taxa are known as polyphyletic and taxonomic resolution is unclear.

When taxonomic assignments are done following dada2, we have genus and species columns. These can be combine as genus.species.

# Extract tax_table as tibble last three cols to demonstrate this
getTaxaTibble(ps)[,6:8]

## # A tibble: 905 x 3
##    Family          Genus                        Species       
##    <chr>           <chr>                        <chr>         
##  1 Lachnospiraceae Lachnospiraceae NC2004 group <NA>          
##  2 Ruminococcaceae Ruminococcaceae UCG-013      <NA>          
##  3 Ruminococcaceae <NA>                         <NA>          
##  4 Lachnospiraceae Fusicatenibacter             saccharivorans
##  5 Ruminococcaceae <NA>                         <NA>          
##  6 Ruminococcaceae <NA>                         <NA>          
##  7 Lachnospiraceae Roseburia                    <NA>          
##  8 Ruminococcaceae Butyricicoccus               <NA>          
##  9 Rikenellaceae   Alistipes                    <NA>          
## 10 Ruminococcaceae Oscillibacter                <NA>          
## # ... with 895 more rows

Unite genus and species columns.

ps <- uniteGenusSpeciesNames(ps)
# check
getTaxaTibble(ps)[,6:8]

## # A tibble: 905 x 3
##    Family          Genus                        Species                        
##    <chr>           <chr>                        <chr>                          
##  1 Lachnospiraceae Lachnospiraceae NC2004 group <NA>                           
##  2 Ruminococcaceae Ruminococcaceae UCG-013      <NA>                           
##  3 Ruminococcaceae <NA>                         <NA>                           
##  4 Lachnospiraceae Fusicatenibacter             Fusicatenibacter.saccharivorans
##  5 Ruminococcaceae <NA>                         <NA>                           
##  6 Ruminococcaceae <NA>                         <NA>                           
##  7 Lachnospiraceae Roseburia                    <NA>                           
##  8 Ruminococcaceae Butyricicoccus               <NA>                           
##  9 Rikenellaceae   Alistipes                    <NA>                           
## 10 Ruminococcaceae Oscillibacter                <NA>                           
## # ... with 895 more rows

Sample

Similarly, one can combine two columns in sample data.

# Extract tax_table as tibble last three cols to demonstrate this
getSampleTibble(ps)[,6:8]

## # A tibble: 589 x 3
##    sex     age ILI  
##    <fct> <dbl> <fct>
##  1 M        72 C    
##  2 F        71 C    
##  3 F        66 C    
##  4 F        70 C    
##  5 M        69 L1   
##  6 M        70 C    
##  7 F        67 L1   
##  8 M        81 C    
##  9 F        78 C    
## 10 F        68 L1   
## # ... with 579 more rows

ps <- uniteSampleColumn(ps,
                        "united.column", sex:age,
                        sep= ":",
                        remove = FALSE)
getSampleTibble(ps)[,6:8]

## # A tibble: 589 x 3
##    united.column sex     age
##    <chr>         <fct> <dbl>
##  1 M:72          M        72
##  2 F:71          F        71
##  3 F:66          F        66
##  4 F:70          F        70
##  5 M:69          M        69
##  6 M:70          M        70
##  7 F:67          F        67
##  8 M:81          M        81
##  9 F:78          F        78
## 10 F:68          F        68
## # ... with 579 more rows
…
